stm32l0xx_hal_i2c.c:5852:13:I2C_Flush_TXDR	0	static
stm32l0xx_hal_i2c.c:6313:13:I2C_TransferConfig	12	static
stm32l0xx_hal_i2c.c:6332:13:I2C_Enable_IRQ	8	static
stm32l0xx_hal_i2c.c:6403:13:I2C_Disable_IRQ	8	static
stm32l0xx_hal_i2c.c:6466:13:I2C_ConvertOtherXferOptions	0	static
stm32l0xx_hal_i2c.c:6245:26:I2C_IsAcknowledgeFailed	24	static
stm32l0xx_hal_i2c.c:6182:26:I2C_WaitOnRXNEFlagUntilTimeout	24	static
stm32l0xx_hal_i2c.c:6148:26:I2C_WaitOnSTOPFlagUntilTimeout	24	static
stm32l0xx_hal_i2c.c:6081:26:I2C_WaitOnFlagUntilTimeout	24	static
stm32l0xx_hal_i2c.c:6111:26:I2C_WaitOnTXISFlagUntilTimeout	24	static
stm32l0xx_hal_i2c.c:5121:26:I2C_RequestMemoryWrite	24	static
stm32l0xx_hal_i2c.c:5174:26:I2C_RequestMemoryRead	24	static
stm32l0xx_hal_i2c.c:624:13:HAL_I2C_MspInit	0	static
stm32l0xx_hal_i2c.c:469:19:HAL_I2C_Init	16	static
stm32l0xx_hal_i2c.c:640:13:HAL_I2C_MspDeInit	0	static
stm32l0xx_hal_i2c.c:578:19:HAL_I2C_DeInit	16	static
stm32l0xx_hal_i2c.c:1060:19:HAL_I2C_Master_Transmit	48	static
stm32l0xx_hal_i2c.c:1174:19:HAL_I2C_Master_Receive	48	static
stm32l0xx_hal_i2c.c:1287:19:HAL_I2C_Slave_Transmit	48	static
stm32l0xx_hal_i2c.c:1424:19:HAL_I2C_Slave_Receive	56	static
stm32l0xx_hal_i2c.c:1550:19:HAL_I2C_Master_Transmit_IT	40	static
stm32l0xx_hal_i2c.c:1619:19:HAL_I2C_Master_Receive_IT	40	static
stm32l0xx_hal_i2c.c:1686:19:HAL_I2C_Slave_Transmit_IT	24	static
stm32l0xx_hal_i2c.c:1735:19:HAL_I2C_Slave_Receive_IT	24	static
stm32l0xx_hal_i2c.c:1786:19:HAL_I2C_Master_Transmit_DMA	48	static
stm32l0xx_hal_i2c.c:1929:19:HAL_I2C_Master_Receive_DMA	48	static
stm32l0xx_hal_i2c.c:2070:19:HAL_I2C_Slave_Transmit_DMA	32	static
stm32l0xx_hal_i2c.c:2173:19:HAL_I2C_Slave_Receive_DMA	32	static
stm32l0xx_hal_i2c.c:2280:19:HAL_I2C_Mem_Write	56	static
stm32l0xx_hal_i2c.c:2415:19:HAL_I2C_Mem_Read	56	static
stm32l0xx_hal_i2c.c:2548:19:HAL_I2C_Mem_Write_IT	56	static
stm32l0xx_hal_i2c.c:2639:19:HAL_I2C_Mem_Read_IT	56	static
stm32l0xx_hal_i2c.c:2729:19:HAL_I2C_Mem_Write_DMA	56	static
stm32l0xx_hal_i2c.c:2873:19:HAL_I2C_Mem_Read_DMA	56	static
stm32l0xx_hal_i2c.c:3014:19:HAL_I2C_IsDeviceReady	56	static
stm32l0xx_hal_i2c.c:3156:19:HAL_I2C_Master_Seq_Transmit_IT	40	static
stm32l0xx_hal_i2c.c:3240:19:HAL_I2C_Master_Seq_Transmit_DMA	56	static
stm32l0xx_hal_i2c.c:3402:19:HAL_I2C_Master_Seq_Receive_IT	40	static
stm32l0xx_hal_i2c.c:3486:19:HAL_I2C_Master_Seq_Receive_DMA	56	static
stm32l0xx_hal_i2c.c:3646:19:HAL_I2C_Slave_Seq_Transmit_IT	40	static
stm32l0xx_hal_i2c.c:3741:19:HAL_I2C_Slave_Seq_Transmit_DMA	40	static
stm32l0xx_hal_i2c.c:3920:19:HAL_I2C_Slave_Seq_Receive_IT	40	static
stm32l0xx_hal_i2c.c:4015:19:HAL_I2C_Slave_Seq_Receive_DMA	40	static
stm32l0xx_hal_i2c.c:4190:19:HAL_I2C_EnableListen_IT	8	static
stm32l0xx_hal_i2c.c:4214:19:HAL_I2C_DisableListen_IT	16	static
stm32l0xx_hal_i2c.c:4247:19:HAL_I2C_Master_Abort_IT	32	static
stm32l0xx_hal_i2c.c:4297:6:HAL_I2C_EV_IRQHandler	8	static
stm32l0xx_hal_i2c.c:4365:13:HAL_I2C_MasterTxCpltCallback	0	static
stm32l0xx_hal_i2c.c:4381:13:HAL_I2C_MasterRxCpltCallback	0	static
stm32l0xx_hal_i2c.c:5316:13:I2C_ITMasterSeqCplt	16	static
stm32l0xx_hal_i2c.c:4396:13:HAL_I2C_SlaveTxCpltCallback	0	static
stm32l0xx_hal_i2c.c:4412:13:HAL_I2C_SlaveRxCpltCallback	0	static
stm32l0xx_hal_i2c.c:5369:13:I2C_ITSlaveSeqCplt	16	static
stm32l0xx_hal_i2c.c:5921:13:I2C_DMASlaveTransmitCplt	8	static
stm32l0xx_hal_i2c.c:5996:13:I2C_DMASlaveReceiveCplt	8	static
stm32l0xx_hal_i2c.c:4430:13:HAL_I2C_AddrCallback	0	static
stm32l0xx_hal_i2c.c:5221:13:I2C_ITAddrCplt.isra.9	32	static
stm32l0xx_hal_i2c.c:4448:13:HAL_I2C_ListenCpltCallback	0	static
stm32l0xx_hal_i2c.c:5680:13:I2C_ITListenCplt	8	static
stm32l0xx_hal_i2c.c:4464:13:HAL_I2C_MemTxCpltCallback	0	static
stm32l0xx_hal_i2c.c:4480:13:HAL_I2C_MemRxCpltCallback	0	static
stm32l0xx_hal_i2c.c:4496:13:HAL_I2C_ErrorCallback	0	static
stm32l0xx_hal_i2c.c:4512:13:HAL_I2C_AbortCpltCallback	0	static
stm32l0xx_hal_i2c.c:5734:13:I2C_ITError	16	static
stm32l0xx_hal_i2c.c:5544:13:I2C_ITSlaveCplt	24	static
stm32l0xx_hal_i2c.c:4731:26:I2C_Slave_ISR_IT	24	static
stm32l0xx_hal_i2c.c:5425:13:I2C_ITMasterCplt	8	static
stm32l0xx_hal_i2c.c:4595:26:I2C_Master_ISR_IT	32	static
stm32l0xx_hal_i2c.c:5001:26:I2C_Slave_ISR_DMA	24	static
stm32l0xx_hal_i2c.c:4866:26:I2C_Master_ISR_DMA	24	static
stm32l0xx_hal_i2c.c:6023:13:I2C_DMAError	8	static
stm32l0xx_hal_i2c.c:5873:13:I2C_DMAMasterTransmitCplt	8	static
stm32l0xx_hal_i2c.c:5948:13:I2C_DMAMasterReceiveCplt	8	static
stm32l0xx_hal_i2c.c:4316:6:HAL_I2C_ER_IRQHandler	16	static
stm32l0xx_hal_i2c.c:6040:13:I2C_DMAAbort	8	static
stm32l0xx_hal_i2c.c:4547:22:HAL_I2C_GetState	0	static
stm32l0xx_hal_i2c.c:4559:21:HAL_I2C_GetMode	0	static
stm32l0xx_hal_i2c.c:4570:10:HAL_I2C_GetError	0	static
